Simulator,6,7,8,9,10,11,12,13,14,15,16,17,18,19,20,21,22,23,24,25,26,27,28,29
qiskit_statevector,0.0048123715469999976,0.00599767802499997,0.007560541559,0.010120266779999838,0.011497027550000212,0.01638501872000006,0.022667758070000446,0.036539131440000004,0.06720010592999984,0.05319339775999993,0.09102690861000041,0.17435000840000042,0.3463834884999983,0.7325281136000001,1.6453947210000024,3.5677112329999545,7.663100688999975,16.377706752999984,35.19070694699997,74.853823283,162.01524164700004,349.5405487649996,,
qiskit_density_matrix,0.007282484844000009,0.019298380059999544,0.06653206658000271,0.30341318549999413,1.5596658519998527,7.451424272999702,35.117312137000226,161.03076006899983,,,,,,,,,,,,,,,,
qiskit_matrix_product_state,0.010359628299993347,0.012524968190000436,0.01492124831000183,0.017716431110002304,0.020577181340004243,0.02379599230000167,0.027317733319996478,0.03113927479999802,0.03530044937999264,0.039544995010001,0.044338437030000934,0.04939969443999871,0.055427146169995466,0.060207034459999705,0.06816625266000301,0.07645326806999947,0.08608280950999869,0.0958795733900024,0.10589750389999608,0.11541900129996066,,,,
qiskit_extended_stabilizer,5.41803685800005,43.322162996999396,361.26355665699975,,,,,,,,,,,,,,,,,,,,,
qiskit_unitary,0.005805670411000392,0.0164969679800015,0.02194784019000508,0.08798992742000337,0.4192383429000074,2.044988129999183,9.68175398800031,46.66920005499924,211.48127779100014,,,,,,,,,,,,,,,
qiskit_superop,11.796133550000377,245.805101467,,,,,,,,,,,,,,,,,,,,,,
qsim_statevector,0.004769105185001536,0.006330708342000435,0.007970769407000262,0.009953622816999996,0.012065053629994509,0.014557608180002717,0.017252888080001867,0.020547266649991798,0.02469018155001322,0.030701087529996583,0.04112851238000076,0.059393514000003055,0.09640418474000398,0.17381893870006024,0.35824825149993555,0.8575131601999602,2.0167507030000706,4.540492637999705,9.980524984001022,21.682010780999917,46.54297133200089,98.90618496500065,211.1229986369999,438.06543015699935
cirq_statevector,0.018493252649986972,0.02467048070999226,0.0313493777199983,0.03968163988000015,0.0493937423999887,0.06041464818001259,0.07443081623001489,0.09182968181999968,0.11841790300004504,0.15983574349993432,0.2311756899998727,0.3685071358000641,0.6411279693000325,1.2551257209997857,2.669771930000934,6.088108967000153,13.106965664001109,27.406214752001688,58.76673106999988,120.46011084699967,247.91239023799972,507.0844746750008,,
cirq_density_matrix,0.03847124280000571,0.062891296279995,0.13366858619992855,0.41380681979990186,2.19444431500051,12.12541841500024,58.727550866000456,266.6232087149983,,,,,,,,,,,,,,,,
